…
In `table2`, each row represents a (country, year, variable) combination.
The column `count` contains the values of variables `cases` and `population` in separate rows.

```r
table2
#> # A tibble: 12 x 4
#>   country      year type           count
#>   <chr>       <int> <chr>          <int>
#> 1 Afghanistan  1999 cases            745
#> 2 Afghanistan  1999 population  19987071
#> 3 Afghanistan  2000 cases           2666
#> 4 Afghanistan  2000 population  20595360
#> 5 Brazil       1999 cases          37737
#> 6 Brazil       1999 population 172006362
#> # … with 6 more rows
```
…
To store this new variable in the appropriate location, we will add new rows to `table2`.

```r
t2_cases_per_cap <- t2_cases_per_cap %>%
  mutate(type = "cases_per_cap") %>%
  rename(count = cases_per_cap)
```

```r
bind_rows(table2, t2_cases_per_cap) %>%
  arrange(country, year, type, count)
#> # A tibble: 18 x 4
#>   country      year type                 count
#>   <chr>       <int> <chr>                <dbl>
#> 1 Afghanistan  1999 cases              745    
#> 2 Afghanistan  1999 cases_per_cap        0.373
#> 3 Afghanistan  1999 population    19987071    
#> 4 Afghanistan  2000 cases             2666    
#> 5 Afghanistan  2000 cases_per_cap        1.29 
#> 6 Afghanistan  2000 population    20595360    
#> # … with 12 more rows
```
…
```r
anti_join(complete(who, country, year), who, by = c("country", "year")) %>%
  select(country, year) %>%
  group_by(country) %>%
  # so I can make better sense of the years
  summarise(min_year = min(year), max_year = max(year))
#> # A tibble: 9 x 3
#>   country                           min_year max_year
#>   <chr>                                <int>    <int>
#> 1 Bonaire, Saint Eustatius and Saba     1980     2009
#> 2 Curacao                               1980     2009
#> 3 Montenegro                            1980     2004
#> 4 Netherlands Antilles                  2010     2013
#> 5 Serbia                                1980     2004
#> 6 Serbia & Montenegro                   2005     2013
#> # … with 3 more rows
```
…
