5 Data transformation | R for Data Science: Exercise Solutions
…
The flights that flew to Houston are those flights where the
destination (dest) is either “IAH” or “HOU”.

filter(flights, dest == "IAH" | dest == "HOU")
#> # A tibble: 9,313 x 19
#>    year month   day dep_time sched_dep_time dep_delay arr_time
#>   <int> <int> <int>    <int>          <int>     <dbl>    <int>
#> 1  2013     1     1      517            515         2      830
#> 2  2013     1     1      533            529         4      850
#> 3  2013     1     1      623            627        -4      933
#> 4  2013     1     1      728            732        -4     1041
#> 5  2013     1     1      739            739         0     1104
#> 6  2013     1     1      908            908         0     1228
#> # … with 9,307 more rows, and 12 more variables: sched_arr_time <int>,
#> #   arr_delay <dbl>, carrier <chr>, flight <int>, tailnum <chr>,
#> #   origin <chr>, dest <chr>, air_time <dbl>, distance <dbl>, hour <dbl>,
#> #   minute <dbl>, time_hour <dttm>

However, using %in% is more compact and would scale to cases where
there were more than two airports we were interested in.

filter(flights, dest %in% c("IAH", "HOU"))
#> # A tibble: 9,313 x 19
#>    year month   day dep_time sched_dep_time dep_delay arr_time
#>   <int> <int> <int>    <int>          <int>     <dbl>    <int>
#> 1  2013     1     1      517            515         2      830
#> 2  2013     1     1      533            529         4      850
#> 3  2013     1     1      623            627        -4      933
#> 4  2013     1     1      728            732        -4     1041
#> 5  2013     1     1      739            739         0     1104
#> 6  2013     1     1      908            908         0     1228
#> # … with 9,307 more rows, and 12 more variables: sched_arr_time <int>,
#> #   arr_delay <dbl>, carrier <chr>, flight <int>, tailnum <chr>,
#> #   origin <chr>, dest <chr>, air_time <dbl>, distance <dbl>, hour <dbl>,
#> #   minute <dbl>, time_hour <dttm>

In the flights dataset, the column carrier indicates the airline, but it uses two-character carrier codes.
We can find the carrier codes for the airlines in the airlines dataset.
Since the carrier code dataset only has 16 rows, and the names
of the airlines in that dataset are not exactly “United”, “American”, or “Delta”,
it is easiest to manually look up their carrier codes in that data.

airlines
#> # A tibble: 16 x 2
#>   carrier name                    
#>   <chr>   <chr>                   
#> 1 9E      Endeavor Air Inc.       
#> 2 AA      American Airlines Inc.  
#> 3 AS      Alaska Airlines Inc.    
#> 4 B6      JetBlue Airways         
#> 5 DL      Delta Air Lines Inc.    
#> 6 EV      ExpressJet Airlines Inc.
#> # … with 10 more rows
…
We can also use the between() function as shown in Exercise 5.2.2.

Flights that arrived more than two hours late, but didn’t leave late will
have an arrival delay of more than 120 minutes (arr_delay > 120) and
a non-positive departure delay (dep_delay <= 0).

filter(flights, arr_delay > 120, dep_delay <= 0)
#> # A tibble: 29 x 19
#>    year month   day dep_time sched_dep_time dep_delay arr_time
#>   <int> <int> <int>    <int>          <int>     <dbl>    <int>
#> 1  2013     1    27     1419           1420        -1     1754
#> 2  2013    10     7     1350           1350         0     1736
#> 3  2013    10     7     1357           1359        -2     1858
#> 4  2013    10    16      657            700        -3     1258
#> 5  2013    11     1      658            700        -2     1329
#> 6  2013     3    18     1844           1847        -3       39
#> # … with 23 more rows, and 12 more variables: sched_arr_time <int>,
#> #   arr_delay <dbl>, carrier <chr>, flight <int>, tailnum <chr>,
#> #   origin <chr>, dest <chr>, air_time <dbl>, distance <dbl>, hour <dbl>,
#> #   minute <dbl>, time_hour <dttm>

Were delayed by at least an hour, but made up over 30 minutes in flight.
If a flight was delayed by at least an hour, then dep_delay >= 60.
If the flight didn’t make up any time in the air, then its arrival would be delayed by the same amount as its departure, meaning dep_delay == arr_delay, or alternatively, dep_delay - arr_delay == 0.
If it makes up over 30 minutes in the air, then the arrival delay must be at least 30 minutes less than the departure delay, which is stated as dep_delay - arr_delay > 30.

filter(flights, dep_delay >= 60, dep_delay - arr_delay > 30)
#> # A tibble: 1,844 x 19
#>    year month   day dep_time sched_dep_time dep_delay arr_time
#>   <int> <int> <int>    <int>          <int>     <dbl>    <int>
#> 1  2013     1     1     2205           1720       285       46
#> 2  2013     1     1     2326           2130       116      131
#> 3  2013     1     3     1503           1221       162     1803
#> 4  2013     1     3     1839           1700        99     2056
#> 5  2013     1     3     1850           1745        65     2148
#> 6  2013     1     3     1941           1759       102     2246
#> # … with 1,838 more rows, and 12 more variables: sched_arr_time <int>,
#> #   arr_delay <dbl>, carrier <chr>, flight <int>, tailnum <chr>,
#> #   origin <chr>, dest <chr>, air_time <dbl>, distance <dbl>, hour <dbl>,
#> #   minute <dbl>, time_hour <dttm>
…
In dep_time, midnight is represented by 2400, not 0.
You can verify this by checking the minimum and maximum of dep_time.

summary(flights$dep_time)
#>    Min. 1st Qu.  Median    Mean 3rd Qu.    Max.    NA's 
#>       1     907    1401    1349    1744    2400    8255

This is an example of why it is always good to check the summary statistics of your data.
Unfortunately, this means we cannot simply check that dep_time < 600, because we also have
to consider the special case of midnight.

filter(flights, dep_time <= 600 | dep_time == 2400)
#> # A tibble: 9,373 x 19
#>    year month   day dep_time sched_dep_time dep_delay arr_time
#>   <int> <int> <int>    <int>          <int>     <dbl>    <int>
#> 1  2013     1     1      517            515         2      830
#> 2  2013     1     1      533            529         4      850
#> 3  2013     1     1      542            540         2      923
#> 4  2013     1     1      544            545        -1     1004
#> 5  2013     1     1      554            600        -6      812
#> 6  2013     1     1      554            558        -4      740
#> # … with 9,367 more rows, and 12 more variables: sched_arr_time <int>,
#> #   arr_delay <dbl>, carrier <chr>, flight <int>, tailnum <chr>,
#> #   origin <chr>, dest <chr>, air_time <dbl>, distance <dbl>, hour <dbl>,
#> #   minute <dbl>, time_hour <dttm>

Alternatively, we could use the modulo operator, %%.
The modulo operator returns the remainder of division.
Let’s see how how this affects our times.

c(600, 1200, 2400) %% 2400
#> [1]  600 1200    0

Since 2400 %% 2400 == 0 and all other times are left unchanged,
we can compare the result of the modulo operation to 600,

filter(flights, dep_time %% 2400 <= 600)
#> # A tibble: 9,373 x 19
#>    year month   day dep_time sched_dep_time dep_delay arr_time
#>   <int> <int> <int>    <int>          <int>     <dbl>    <int>
#> 1  2013     1     1      517            515         2      830
#> 2  2013     1     1      533            529         4      850
#> 3  2013     1     1      542            540         2      923
#> 4  2013     1     1      544            545        -1     1004
#> 5  2013     1     1      554            600        -6      812
#> 6  2013     1     1      554            558        -4      740
#> # … with 9,367 more rows, and 12 more variables: sched_arr_time <int>,
#> #   arr_delay <dbl>, carrier <chr>, flight <int>, tailnum <chr>,
#> #   origin <chr>, dest <chr>, air_time <dbl>, distance <dbl>, hour <dbl>,
#> #   minute <dbl>, time_hour <dttm>
…
Exercise 5.2.3

How many flights have a missing dep_time? What other variables are missing? What might these rows represent?

Find the rows of flights with a missing departure time (dep_time) using the is.na() function.

filter(flights, is.na(dep_time))
#> # A tibble: 8,255 x 19
#>    year month   day dep_time sched_dep_time dep_delay arr_time
#>   <int> <int> <int>    <int>          <int>     <dbl>    <int>
#> 1  2013     1     1       NA           1630        NA       NA
#> 2  2013     1     1       NA           1935        NA       NA
#> 3  2013     1     1       NA           1500        NA       NA
#> 4  2013     1     1       NA            600        NA       NA
#> 5  2013     1     2       NA           1540        NA       NA
#> 6  2013     1     2       NA           1620        NA       NA
#> # … with 8,249 more rows, and 12 more variables: sched_arr_time <int>,
#> #   arr_delay <dbl>, carrier <chr>, flight <int>, tailnum <chr>,
#> #   origin <chr>, dest <chr>, air_time <dbl>, distance <dbl>, hour <dbl>,
#> #   minute <dbl>, time_hour <dttm>
…
flights_deptime <-
  mutate(flights,
    dep_time_min = (dep_time %/% 100 * 60 + dep_time %% 100) %% 1440,
    sched_dep_time_min = (sched_dep_time %/% 100 * 60 +
      sched_dep_time %% 100) %% 1440,
    dep_delay_diff = dep_delay - dep_time_min + sched_dep_time_min
  )

Does dep_delay_diff equal zero for all rows?

filter(flights_deptime, dep_delay_diff != 0)
#> # A tibble: 1,236 x 22
#>    year month   day dep_time sched_dep_time dep_delay arr_time
#>   <int> <int> <int>    <int>          <int>     <dbl>    <int>
#> 1  2013     1     1      848           1835       853     1001
#> 2  2013     1     2       42           2359        43      518
#> 3  2013     1     2      126           2250       156      233
#> 4  2013     1     3       32           2359        33      504
#> 5  2013     1     3       50           2145       185      203
#> 6  2013     1     3      235           2359       156      700
#> # … with 1,230 more rows, and 15 more variables: sched_arr_time <int>,
#> #   arr_delay <dbl>, carrier <chr>, flight <int>, tailnum <chr>,
#> #   origin <chr>, dest <chr>, air_time <dbl>, distance <dbl>, hour <dbl>,
#> #   minute <dbl>, time_hour <dttm>, dep_time_min <dbl>,
#> #   sched_dep_time_min <dbl>, dep_delay_diff <dbl>
…
Exercise 5.6.2

Come up with another approach that will give you the same output as not_cancelled %>% count(dest) and not_cancelled %>% count(tailnum, wt = distance) (without using count()).

not_cancelled <- flights %>%
  filter(!is.na(dep_delay), !is.na(arr_delay))

The first expression is the following.

not_cancelled %>%
  count(dest)
#> # A tibble: 104 x 2
#>   dest      n
#>   <chr> <int>
#> 1 ABQ     254
#> 2 ACK     264
#> 3 ALB     418
#> 4 ANC       8
#> 5 ATL   16837
#> 6 AUS    2411
#> # … with 98 more rows

The count() function counts the number of instances within each group of variables.
Instead of using the count() function,we can combine the group_by() and summarise() verbs.

not_cancelled %>%
  group_by(dest) %>%
  summarise(n = length(dest))
#> # A tibble: 104 x 2
#>   dest      n
#>   <chr> <int>
#> 1 ABQ     254
#> 2 ACK     264
#> 3 ALB     418
#> 4 ANC       8
#> 5 ATL   16837
#> 6 AUS    2411
#> # … with 98 more rows

An alternative method for getting the number of observations in a data frame is the function n().

not_cancelled %>%
  group_by(dest) %>%
  summarise(n = n())
#> # A tibble: 104 x 2
#>   dest      n
#>   <chr> <int>
#> 1 ABQ     254
#> 2 ACK     264
#> 3 ALB     418
#> 4 ANC       8
#> 5 ATL   16837
#> 6 AUS    2411
#> # … with 98 more rows

Another alternative to count() is to use the combination of the group_by() and tally() verbs.
In fact, count() is effectively a short-cut for group_by() followed by tally().

not_cancelled %>%
  group_by(tailnum) %>%
  tally()
#> # A tibble: 4,037 x 2
#>   tailnum     n
#>   <chr>   <int>
#> 1 D942DN      4
#> 2 N0EGMQ    352
#> 3 N10156    145
#> 4 N102UW     48
#> 5 N103US     46
#> 6 N104UW     46
#> # … with 4,031 more rows

The second expression also uses the count() function, but adds a wt argument.

not_cancelled %>%
  count(tailnum, wt = distance)
#> # A tibble: 4,037 x 2
#>   tailnum      n
#>   <chr>    <dbl>
#> 1 D942DN    3418
#> 2 N0EGMQ  239143
#> 3 N10156  109664
#> 4 N102UW   25722
#> 5 N103US   24619
#> 6 N104UW   24616
#> # … with 4,031 more rows

As before, we can replicate count() by combining the group_by() and summarise() verbs.
But this time instead of using length(), we will use sum() with the weighting variable.

not_cancelled %>%
  group_by(tailnum) %>%
  summarise(n = sum(distance))
#> # A tibble: 4,037 x 2
#>   tailnum      n
#>   <chr>    <dbl>
#> 1 D942DN    3418
#> 2 N0EGMQ  239143
#> 3 N10156  109664
#> 4 N102UW   25722
#> 5 N103US   24619
#> 6 N104UW   24616
#> # … with 4,031 more rows

Like the previous example, we can also use the combination group_by() and tally().
Any arguments to tally() are summed.

not_cancelled %>%
  group_by(tailnum) %>%
  tally(distance)
#> # A tibble: 4,037 x 2
#>   tailnum      n
#>   <chr>    <dbl>
#> 1 D942DN    3418
#> 2 N0EGMQ  239143
#> 3 N10156  109664
#> 4 N102UW   25722
#> 5 N103US   24619
#> 6 N104UW   24616
#> # … with 4,031 more rows

Exercise 5.6.3

Our definition of cancelled flights (is.na(dep_delay) | is.na(arr_delay)) is slightly suboptimal.
Why?
Which is the most important column?

If a flight never departs, then it won’t arrive.
A flight could also depart and not arrive if it crashes, or if it is redirected and lands in an airport other than its intended destination.
So the most important column is arr_delay, which indicates the amount of delay in arrival.

filter(flights, !is.na(dep_delay), is.na(arr_delay)) %>%
  select(dep_time, arr_time, sched_arr_time, dep_delay, arr_delay)
#> # A tibble: 1,175 x 5
#>   dep_time arr_time sched_arr_time dep_delay arr_delay
#>      <int>    <int>          <int>     <dbl>     <dbl>
#> 1     1525     1934           1805        -5        NA
#> 2     1528     2002           1647        29        NA
#> 3     1740     2158           2020        -5        NA
#> 4     1807     2251           2103        29        NA
#> 5     1939       29           2151        59        NA
#> 6     1952     2358           2207        22        NA
#> # … with 1,169 more rows
…
Exercise 5.6.5

Which carrier has the worst delays?
Challenge: can you disentangle the effects of bad airports vs. bad carriers?
Why/why not?
(Hint: think about flights %>% group_by(carrier, dest) %>% summarise(n()))

flights %>%
  group_by(carrier) %>%
  summarise(arr_delay = mean(arr_delay, na.rm = TRUE)) %>%
  arrange(desc(arr_delay))
#> # A tibble: 16 x 2
#>   carrier arr_delay
#>   <chr>       <dbl>
#> 1 F9           21.9
#> 2 FL           20.1
#> 3 EV           15.8
#> 4 YV           15.6
#> 5 OO           11.9
#> 6 MQ           10.8
#> # … with 10 more rows
…
  # average delay of each carrier - average delay of other carriers
  ungroup() %>%
  mutate(
    arr_delay_others = (arr_delay_total - arr_delay) /
      (flights_total - flights),
    arr_delay_mean = arr_delay / flights,
    arr_delay_diff = arr_delay_mean - arr_delay_others
  ) %>%
  # remove NaN values (when there is only one carrier)
  filter(is.finite(arr_delay_diff)) %>%
  # average over all airports it flies to
  group_by(carrier) %>%
  summarise(arr_delay_diff = mean(arr_delay_diff)) %>%
  arrange(desc(arr_delay_diff))
#> # A tibble: 15 x 2
#>   carrier arr_delay_diff
#>   <chr>            <dbl>
#> 1 OO              27.3  
#> 2 F9              17.3  
#> 3 EV              11.0  
#> 4 B6               6.41 
#> 5 FL               2.57 
#> 6 VX              -0.202
#> # … with 9 more rows
…
Summary functions like mean(), median(), sum(), std() and others covered
in the section Useful Summary Functions
calculate their values within each group when used with mutate() or filter() and group_by().

tibble(
  x = 1:9,
  group = rep(c("a", "b", "c"), each = 3)
) %>%
  mutate(x_mean = mean(x)) %>%
  group_by(group) %>%
  mutate(x_mean_2 = mean(x))
#> # A tibble: 9 x 4
#> # Groups:   group [3]
#>       x group x_mean x_mean_2
#>   <int> <chr>  <dbl>    <dbl>
#> 1     1 a          5        2
#> 2     2 a          5        2
#> 3     3 a          5        2
#> 4     4 b          5        5
#> 5     5 b          5        5
#> 6     6 b          5        5
#> # … with 3 more rows

Arithmetic operators +, -, *, /, ^ are not affected by group_by().

tibble(
  x = 1:9,
  group = rep(c("a", "b", "c"), each = 3)
) %>%
  mutate(y = x + 2) %>%
  group_by(group) %>%
  mutate(z = x + 2)
#> # A tibble: 9 x 4
#> # Groups:   group [3]
#>       x group     y     z
#>   <int> <chr> <dbl> <dbl>
#> 1     1 a         3     3
#> 2     2 a         4     4
#> 3     3 a         5     5
#> 4     4 b         6     6
#> 5     5 b         7     7
#> 6     6 b         8     8
#> # … with 3 more rows

The modular arithmetic operators %/% and %% are not affected by group_by()

tibble(
  x = 1:9,
  group = rep(c("a", "b", "c"), each = 3)
) %>%
  mutate(y = x %% 2) %>%
  group_by(group) %>%
  mutate(z = x %% 2)
#> # A tibble: 9 x 4
#> # Groups:   group [3]
#>       x group     y     z
#>   <int> <chr> <dbl> <dbl>
#> 1     1 a         1     1
#> 2     2 a         0     0
#> 3     3 a         1     1
#> 4     4 b         0     0
#> 5     5 b         1     1
#> 6     6 b         0     0
#> # … with 3 more rows

The logarithmic functions log(), log2(), and log10() are not affected by
group_by().

tibble(
  x = 1:9,
  group = rep(c("a", "b", "c"), each = 3)
) %>%
  mutate(y = log(x)) %>%
  group_by(group) %>%
  mutate(z = log(x))
#> # A tibble: 9 x 4
#> # Groups:   group [3]
#>       x group     y     z
#>   <int> <chr> <dbl> <dbl>
#> 1     1 a     0     0    
#> 2     2 a     0.693 0.693
#> 3     3 a     1.10  1.10 
#> 4     4 b     1.39  1.39 
#> 5     5 b     1.61  1.61 
#> 6     6 b     1.79  1.79 
#> # … with 3 more rows

The offset functions lead() and lag() respect the groupings in group_by().
The functions lag() and lead() will only return values within each group.

tibble(
  x = 1:9,
  group = rep(c("a", "b", "c"), each = 3)
) %>%
  group_by(group) %>%
  mutate(
    lag_x = lag(x),
    lead_x = lead(x)
  )
#> # A tibble: 9 x 4
#> # Groups:   group [3]
#>       x group lag_x lead_x
#>   <int> <chr> <int>  <int>
#> 1     1 a        NA      2
#> 2     2 a         1      3
#> 3     3 a         2     NA
#> 4     4 b        NA      5
#> 5     5 b         4      6
#> 6     6 b         5     NA
#> # … with 3 more rows

The cumulative and rolling aggregate functions cumsum(), cumprod(), cummin(), cummax(), and cummean() calculate values within each group.

tibble(
  x = 1:9,
  group = rep(c("a", "b", "c"), each = 3)
) %>%
  mutate(x_cumsum = cumsum(x)) %>%
  group_by(group) %>%
  mutate(x_cumsum_2 = cumsum(x))
#> # A tibble: 9 x 4
#> # Groups:   group [3]
#>       x group x_cumsum x_cumsum_2
#>   <int> <chr>    <int>      <int>
#> 1     1 a            1          1
#> 2     2 a            3          3
#> 3     3 a            6          6
#> 4     4 b           10          4
#> 5     5 b           15          9
#> 6     6 b           21         15
#> # … with 3 more rows

Logical comparisons, <, <=, >, >=, !=, and == are not affected by group_by().

tibble(
  x = 1:9,
  y = 9:1,
  group = rep(c("a", "b", "c"), each = 3)
) %>%
  mutate(x_lte_y = x <= y) %>%
  group_by(group) %>%
  mutate(x_lte_y_2 = x <= y)
#> # A tibble: 9 x 5
#> # Groups:   group [3]
#>       x     y group x_lte_y x_lte_y_2
#>   <int> <int> <chr> <lgl>   <lgl>    
#> 1     1     9 a     TRUE    TRUE     
#> 2     2     8 a     TRUE    TRUE     
#> 3     3     7 a     TRUE    TRUE     
#> 4     4     6 b     TRUE    TRUE     
#> 5     5     5 b     TRUE    TRUE     
#> 6     6     4 b     FALSE   FALSE    
#> # … with 3 more rows
…
